<?xml version="1.0" encoding="UTF-8"?>
<svg width="30px" height="22px" viewBox="0 0 30 22" version="1.1" xmlns="http://www.w3.org/2000/svg" xmlns:xlink="http://www.w3.org/1999/xlink">
    <!-- Generator: Sketch 47.1 (45422) - http://www.bohemiancoding.com/sketch -->
    <title>truck</title>
    <desc>Created with Sketch.</desc>
    <defs></defs>
    <g id="Page-1" stroke="none" stroke-width="1" fill="none" fill-rule="evenodd">
        <g id="02_main_hover" transform="translate(-402.000000, -14.000000)" fill-rule="nonzero" fill="#E7E9EB">
            <g id="шапка">
                <g id="верхняя-полоса">
                    <g id="truck" transform="translate(402.000000, 14.000000)">
                        <path d="M25.8723191,5.48925731 L21.7872128,5.48925731 L21.7872128,0 L2.72342553,0 C1.21870213,0 0,1.22820468 0,2.74466082 L0,17.8401988 L2.72342553,17.8401988 C2.72342553,20.1114094 4.55489362,21.9571579 6.80853191,21.9571579 C9.06217021,21.9571579 10.8936383,20.1114094 10.8936383,17.8401988 L19.0638511,17.8401988 C19.0638511,20.1114094 20.8953191,21.9571579 23.1489574,21.9571579 C25.4025957,21.9571579 27.2340638,20.1114094 27.2340638,17.8401988 L29.9574894,17.8401988 L29.9574894,10.9785789 L25.8723191,5.48925731 Z M6.80853191,19.898614 C5.67829787,19.898614 4.76597872,18.9791813 4.76597872,17.8401345 C4.76597872,16.7010877 5.67829787,15.781655 6.80853191,15.781655 C7.93876596,15.781655 8.85108511,16.7010877 8.85108511,17.8401345 C8.85108511,18.9791813 7.93870213,19.898614 6.80853191,19.898614 Z M23.1489574,19.898614 C22.0187234,19.898614 21.1064043,18.9791813 21.1064043,17.8401345 C21.1064043,16.7010877 22.0187234,15.781655 23.1489574,15.781655 C24.2791915,15.781655 25.1915106,16.7010877 25.1915106,17.8401345 C25.1915106,18.9791813 24.2791277,19.898614 23.1489574,19.898614 Z M21.7872128,10.9785789 L21.7872128,7.54780117 L25.1914468,7.54780117 L27.8671915,10.9785789 L21.7872128,10.9785789 Z" id="Shape"></path>
                    </g>
                </g>
            </g>
        </g>
    </g>
</svg>