<svg xmlns="http://www.w3.org/2000/svg" width="64" height="59" viewBox="0 0 64 59">
    <g fill="#F5000F" fill-rule="nonzero">
        <path d="M58.519 16.901h-2.695v-1.718l1.681-1.835a5.132 5.132 0 0 0 1.354-3.474V5.52c0-3.044-2.498-5.52-5.569-5.52H50.73c-3.071 0-5.57 2.477-5.57 5.52v4.354c0 1.287.482 2.52 1.354 3.474l1.682 1.836V16.9H45.5a5.48 5.48 0 0 0-5.353 4.267 6.115 6.115 0 0 0-.84-.06H36.15v-2.101l1.925-2.102a5.661 5.661 0 0 0 1.493-3.832V8.17c0-3.362-2.759-6.097-6.15-6.097a.958.958 0 0 0-.962.954c0 .527.43.954.962.954 2.33 0 4.226 1.879 4.226 4.19v4.902c0 .945-.353 1.85-.993 2.55l-1.983 2.164a.951.951 0 0 0-.442.803v3.472c0 .527.43.954.962.954h4.119c2.275 0 4.127 1.836 4.127 4.092v5.985H20.516v-5.985c0-1.76 1.126-3.262 2.7-3.84a.955.955 0 0 0 .212-.07 4.15 4.15 0 0 1 1.216-.182h4.118a.958.958 0 0 0 .963-.954V18.59a.951.951 0 0 0-.443-.803L27.3 15.622a3.766 3.766 0 0 1-.994-2.549V8.17c0-2.31 1.896-4.19 4.226-4.19a.958.958 0 0 0 .963-.953.958.958 0 0 0-.963-.954c-3.391 0-6.15 2.735-6.15 6.097v4.903c0 1.42.53 2.78 1.493 3.832l1.925 2.102v2.101h-3.156c-.27 0-.534.02-.793.053a5.479 5.479 0 0 0-5.351-4.26h-2.695v-1.718l1.681-1.835a5.132 5.132 0 0 0 1.354-3.474V5.52C18.84 2.476 16.342 0 13.27 0H10.71C7.64 0 5.14 2.477 5.14 5.52v4.354c0 1.287.48 2.52 1.354 3.474l1.681 1.835v1.718H5.481C2.46 16.901 0 19.34 0 22.335v6.16c0 .527.43.954.962.954h14.97a.958.958 0 0 0 .962-.954.958.958 0 0 0-.962-.953H1.924v-5.207c0-1.944 1.596-3.526 3.557-3.526h3.657a.958.958 0 0 0 .962-.954v-3.083a.95.95 0 0 0-.43-.795L7.92 12.065a3.237 3.237 0 0 1-.854-2.191V5.52c0-1.992 1.635-3.612 3.645-3.612h2.561c2.01 0 3.645 1.62 3.645 3.612v4.354c0 .812-.303 1.59-.854 2.191l-1.751 1.912a.95.95 0 0 0-.43.795v3.083c0 .527.43.954.962.954H18.5a3.553 3.553 0 0 1 3.5 2.903c-2.016.974-3.408 3.026-3.408 5.396v6.938c0 .527.43.954.962.954h24.842a.958.958 0 0 0 .962-.954v-6.938c0-2.351-1.371-4.39-3.362-5.373A3.553 3.553 0 0 1 45.5 18.81h3.657a.958.958 0 0 0 .962-.954v-3.083a.95.95 0 0 0-.43-.795l-1.751-1.912a3.237 3.237 0 0 1-.854-2.191V5.52c0-1.992 1.635-3.612 3.645-3.612h2.561c2.01 0 3.645 1.62 3.645 3.612v4.354c0 .812-.304 1.59-.854 2.191l-1.751 1.912a.95.95 0 0 0-.43.795v3.083c0 .527.43.954.962.954h3.657c1.961 0 3.557 1.581 3.557 3.526v5.207H48.234a.958.958 0 0 0-.963.953c0 .527.431.954.963.954h14.804a.958.958 0 0 0 .962-.954v-6.16c0-2.996-2.459-5.434-5.481-5.434zM41.952 47.805a.973.973 0 0 0-.77-.656l-5.334-.867-2.48-4.758A.978.978 0 0 0 32.5 41c-.365 0-.7.202-.867.524l-2.481 4.758-5.334.867a.974.974 0 0 0-.77.656.961.961 0 0 0 .234.98l3.8 3.807-.815 5.294a.963.963 0 0 0 .391.93.982.982 0 0 0 1.012.08l4.83-2.404 4.83 2.405a.983.983 0 0 0 1.011-.082.963.963 0 0 0 .392-.929l-.816-5.294 3.8-3.808a.96.96 0 0 0 .235-.979zm-5.768 3.772a.963.963 0 0 0-.27.827l.604 3.923-3.58-1.782a.985.985 0 0 0-.876 0l-3.58 1.782.605-3.923a.962.962 0 0 0-.27-.827L26 48.755l3.952-.643a.976.976 0 0 0 .71-.51l1.838-3.527 1.838 3.527a.976.976 0 0 0 .71.51l3.952.643-2.816 2.822zM62.952 40.805a.974.974 0 0 0-.77-.656l-5.333-.867-2.481-4.758A.978.978 0 0 0 53.5 34c-.365 0-.7.202-.867.524l-2.481 4.758-5.334.867a.974.974 0 0 0-.77.656.96.96 0 0 0 .234.98l3.8 3.807-.815 5.295a.963.963 0 0 0 .391.928.983.983 0 0 0 1.012.082l4.83-2.405 4.83 2.405a.982.982 0 0 0 1.011-.082.963.963 0 0 0 .392-.928l-.816-5.295 3.8-3.808a.96.96 0 0 0 .235-.979zm-5.768 3.772a.962.962 0 0 0-.27.827l.604 3.923-3.58-1.782a.984.984 0 0 0-.876 0l-3.58 1.782.605-3.923a.962.962 0 0 0-.27-.827L47 41.755l3.952-.642a.976.976 0 0 0 .71-.511l1.838-3.526 1.839 3.526a.976.976 0 0 0 .709.51l3.952.643-2.816 2.822zM20.952 40.805a.974.974 0 0 0-.77-.656l-5.334-.867-2.48-4.759A.978.978 0 0 0 11.5 34c-.365 0-.7.202-.868.523l-2.48 4.759-5.334.867a.974.974 0 0 0-.77.656.961.961 0 0 0 .234.98l3.8 3.807-.815 5.295a.963.963 0 0 0 .391.928.983.983 0 0 0 1.012.082l4.83-2.405 4.83 2.405a.982.982 0 0 0 1.011-.082.963.963 0 0 0 .392-.928l-.816-5.295 3.8-3.808a.96.96 0 0 0 .235-.979zm-5.768 3.772a.962.962 0 0 0-.27.827l.603 3.923-3.579-1.782a.982.982 0 0 0-.876 0l-3.58 1.782.605-3.923a.962.962 0 0 0-.271-.827L5 41.755l3.953-.642a.977.977 0 0 0 .709-.511l1.838-3.526 1.839 3.526a.977.977 0 0 0 .709.51l3.953.643-2.817 2.822z"/>
    </g>
</svg>
